Antimicrobial agent(s),Gene,Product,Reference gene accession no. (nucleotide positions),
Penicillin,blaZ,Class A beta-lactamase,BX571856.1 (1913827-1914672),
Methicillin,mecA,Low-affinity PBP2,BX571856.1 (44919-46925),
Erythromycin,msrA*,Erythromycin resistance protein,CP003194 (54168-55634),
Erythromycin and clindamycin,ermA,rRNA adenine N-6-methyltransferase,BA000018.3 (56002-56733),
Erythromycin and clindamycin,ermB,rRNA adenine N-6-methyltransferase,AB699882.1 (4971-5708),
Erythromycin and clindamycin,ermC,rRNA adenine N-6-methyltransferase,HE579068 (7858-8592),
Erythromycin and clindamycin,ermT,23S rRNA methylase,HF583292 (11344-12078),
Tetracycline,tetK,MFS tetracycline effux pump,FN433596 (69118-70497),
Tetracycline,tetL,MFS tetracycline efflux pump,HF583292 (7713-9089),
Tetracycline,tetM,Ribosomal protection protein,CP002643 (427033-428952),
Vancomycin,vanA,Low-affinity peptidoglycan precursor,AE017171.1,
Fusidic acid,fusB,Fusidic acid detoxification,CP003193.1 (1336-1977),
Fusidic acid,far*,Ribosome protection protein,AY373761.1 (19072-19713),
Trimethoprim,dfrA,Insensitive dihydrofolate reductase,CP002120 (2093303-2093788),
Trimethoprim,dfrG,Insensitive dihydrofolate reductase,FN433596 (502263-502760),
Gentamicin,aacA-aphD,6-aminoglycoside N-acetyltransferase/2-aminoglycoside phosphotransferase,FN433596.1 (2209531-2210970),
Mupirocin (high-level resistance),mupA,Isoleucyl-tRNA synthetase,HE579068 (2157-5231),
Mupirocin (high-level resistance),mupB,Isoleucyl-tRNA synthetase,JQ231224,
Erythromycin and clindamycin,lsaE,na,JX560992 (11387-12872),
Erythromycin and clindamycin,vgaE,na,FR772051 (8740-10315),
Erythromycin and clindamycin,lnuA,na,AM399080 (1664-2150),
Erythromycin and clindamycin,ereA,na,AY183453.1 (2730-3950),
Erythromycin and clindamycin,ereB,na,X03988.1 (383-1642),
Erythromycin and clindamycin,mefE,na,AE007317.1 (383-1642),
Erythromycin and clindamycin,mefB,na,FJ196385.1 (11084-12313),
Erythromycin and clindamycin,mefC,na,AB571865.1 (144313-145536),
Erythromycin and clindamycin,mefD,na,MN728681.1 (17459-18658),
Erythromycin and clindamycin,mphC,na,AB013298.1 (2296-3195),
Erythromycin and clindamycin,lnuB,na,AJ238249.1 (127-930),
